<?xml version="1.0" standalone="no"?>
<svg viewBox="-2 -2 4 4" version="1.2" id="toplevel"
    xmlns="http://www.w3.org/2000/svg"
    xmlns:xlink="http://www.w3.org/1999/xlink">
  <defs>
    <marker viewBox="0 0 10 10" refX="10" refY="5" markerWidth="10"
           markerHeight="10" markerUnits="strokeWidth"
           orient="auto-start-reverse" id="axis-arrow" visibility="T">
      <path d="M 0 0 L 10 5 L 0 10 z" visibility="T"/>
    </marker>
    <marker viewBox="0 0 10 10" refX="10" refY="5" markerWidth="10"
           markerHeight="10" markerUnits="strokeWidth"
           orient="auto-start-reverse" id="arrow" visibility="T">
      <path d="M 0 0 L 10 5 L 0 10 z" visibility="T"/>
    </marker>
  </defs>
  <style>
    
.end-arrow{
marker-end: url(#arrow);
}
.start-arrow{
marker-start: url(#arrow);
}
.mid-arrow{
marker-mid: url(#arrow);
}
svg{
    transform : scaleY(-1);
    transform-origin : 50% 50%;
    stroke : black;
    fill : none;
    stroke-width: .2%;
    font-size: 1%;
}

text{
    fill : black;
    transform : scaleY(-1);
}

marker{
    fill : black;
    fill : context-stroke;
}

marker.axis{
    fill : gray;
}

line{
    stroke: black;
}

.axis{
    stroke : gray;
}

.grid{
    stroke: light slate;
}
  </style>
  <g transform="translate(-0.48,-1.01)"><text>z''</text></g>
  <line x1="-0.79" y1="-0.61" x2="-0.18" y2="-1.40" visibility="T"
        class="end-arrow"/>
  <g transform="translate(-0.40,-0.31)"><text>z'</text></g>
  <line x1="0.00" y1="0.00" x2="-0.79" y2="-0.61" visibility="T"
        class="end-arrow"/>
  <g transform="translate(-0.31,0.40)"><text>z</text></g>
  <line x1="0.00" y1="0.00" x2="-0.61" y2="0.79" visibility="T"
        class="end-arrow"/>
  <circle cx="0.00" cy="0.00" r="1.00" visibility="T"/>
</svg>
