<?xml version="1.0" standalone="no"?>
<svg viewBox="-40 -40 80 80" version="1.2" id="toplevel"
    xmlns="http://www.w3.org/2000/svg"
    xmlns:xlink="http://www.w3.org/1999/xlink">
  <defs>
    <marker viewBox="0 0 10 10" refX="10" refY="5" markerWidth="10"
           markerHeight="10" markerUnits="strokeWidth"
           orient="auto-start-reverse" id="axis-arrow" visibility="T">
      <path d="M 0 0 L 10 5 L 0 10 z" visibility="T"/>
    </marker>
    <marker viewBox="0 0 10 10" refX="10" refY="5" markerWidth="10"
           markerHeight="10" markerUnits="strokeWidth"
           orient="auto-start-reverse" id="arrow" visibility="T">
      <path d="M 0 0 L 10 5 L 0 10 z" visibility="T"/>
    </marker>
  </defs>
  <style>
    
.end-arrow{
marker-end: url(#arrow);
}
.start-arrow{
marker-start: url(#arrow);
}
.mid-arrow{
marker-mid: url(#arrow);
}
svg{
    transform : scaleY(-1);
    transform-origin : 50% 50%;
    stroke : black;
    fill : none;
    stroke-width: .2%;
    font-size: 1%;
}

text{
    fill : black;
    transform : scaleY(-1);
}

marker{
    fill : black;
    fill : context-stroke;
}

marker.axis{
    fill : gray;
}

line{
    stroke: black;
}

.axis{
    stroke : gray;
}

.grid{
    stroke: light slate;
}
  </style>
  <line x1="-0.77" y1="-0.64" x2="-0.77" y2="-0.64" visibility="T"/>
  <line x1="-0.77" y1="-0.64" x2="-0.77" y2="-0.64" visibility="T"/>
  <line x1="-0.77" y1="-0.64" x2="-0.77" y2="-0.64" visibility="T"/>
  <line x1="-0.77" y1="-0.64" x2="-0.77" y2="-0.64" visibility="T"/>
  <line x1="-0.77" y1="-0.64" x2="-0.77" y2="-0.64" visibility="T"/>
  <line x1="-0.77" y1="-0.64" x2="-0.77" y2="-0.64" visibility="T"/>
  <line x1="-0.77" y1="-0.64" x2="-0.77" y2="-0.64" visibility="T"/>
  <line x1="-0.79" y1="-0.64" x2="-0.77" y2="-0.64" visibility="T"/>
  <line x1="-0.79" y1="-0.58" x2="-0.79" y2="-0.64" visibility="T"/>
  <line x1="-0.60" y1="-0.58" x2="-0.79" y2="-0.58" visibility="T"/>
  <line x1="-0.60" y1="-1.07" x2="-0.60" y2="-0.58" visibility="T"/>
  <line x1="-1.76" y1="-1.07" x2="-0.60" y2="-1.07" visibility="T"/>
  <line x1="-1.76" y1="1.34" x2="-1.76" y2="-1.07" visibility="T"/>
  <line x1="2.65" y1="1.34" x2="-1.76" y2="1.34" visibility="T"/>
  <line x1="2.65" y1="-5.55" x2="2.65" y2="1.34" visibility="T"/>
  <line x1="-6.35" y1="-5.55" x2="2.65" y2="-5.55" visibility="T"/>
  <line x1="-6.35" y1="3.83" x2="-6.35" y2="-5.55" visibility="T"/>
  <line x1="1.00" y1="3.83" x2="-6.35" y2="3.83" visibility="T"/>
  <line x1="1.00" y1="0.00" x2="1.00" y2="3.83" visibility="T"/>
  <line x1="0.00" y1="0.00" x2="1.00" y2="0.00" visibility="T"/>
  <line x1="0.00" y1="0.00" x2="0.00" y2="0.00" visibility="T"/>
  <circle cx="0.00" cy="0.00" r="1.00" visibility="T" class="axis"/>
</svg>
