<?xml version="1.0" standalone="no"?>
<svg viewBox="-40 -40 80 80" version="1.2" id="toplevel"
    xmlns="http://www.w3.org/2000/svg"
    xmlns:xlink="http://www.w3.org/1999/xlink">
  <defs>
    <marker viewBox="0 0 10 10" refX="10" refY="5" markerWidth="10"
           markerHeight="10" markerUnits="strokeWidth"
           orient="auto-start-reverse" id="axis-arrow" visibility="T">
      <path d="M 0 0 L 10 5 L 0 10 z" visibility="T"/>
    </marker>
    <marker viewBox="0 0 10 10" refX="10" refY="5" markerWidth="10"
           markerHeight="10" markerUnits="strokeWidth"
           orient="auto-start-reverse" id="arrow" visibility="T">
      <path d="M 0 0 L 10 5 L 0 10 z" visibility="T"/>
    </marker>
  </defs>
  <style>
    
.end-arrow{
marker-end: url(#arrow);
}
.start-arrow{
marker-start: url(#arrow);
}
.mid-arrow{
marker-mid: url(#arrow);
}
svg{
    transform : scaleY(-1);
    transform-origin : 50% 50%;
    stroke : black;
    fill : none;
    stroke-width: .2%;
    font-size: 1%;
}

text{
    fill : black;
    transform : scaleY(-1);
}

marker{
    fill : black;
    fill : context-stroke;
}

marker.axis{
    fill : gray;
}

line{
    stroke: black;
}

.axis{
    stroke : gray;
}

.grid{
    stroke: light slate;
}
  </style>
  <line x1="0.22" y1="-0.98" x2="0.22" y2="-0.98" visibility="T"/>
  <line x1="0.22" y1="-0.98" x2="0.22" y2="-0.98" visibility="T"/>
  <line x1="0.22" y1="-0.98" x2="0.22" y2="-0.98" visibility="T"/>
  <line x1="0.21" y1="-0.98" x2="0.22" y2="-0.98" visibility="T"/>
  <line x1="0.21" y1="-0.96" x2="0.21" y2="-0.98" visibility="T"/>
  <line x1="0.27" y1="-0.96" x2="0.21" y2="-0.96" visibility="T"/>
  <line x1="0.27" y1="-1.12" x2="0.27" y2="-0.96" visibility="T"/>
  <line x1="-0.16" y1="-1.12" x2="0.27" y2="-1.12" visibility="T"/>
  <line x1="-0.16" y1="-0.07" x2="-0.16" y2="-1.12" visibility="T"/>
  <line x1="2.19" y1="-0.07" x2="-0.16" y2="-0.07" visibility="T"/>
  <line x1="2.19" y1="-4.84" x2="2.19" y2="-0.07" visibility="T"/>
  <line x1="-6.51" y1="-4.84" x2="2.19" y2="-4.84" visibility="T"/>
  <line x1="-6.51" y1="9.27" x2="-6.51" y2="-4.84" visibility="T"/>
  <line x1="13.51" y1="9.27" x2="-6.51" y2="9.27" visibility="T"/>
  <line x1="13.51" y1="-15.08" x2="13.51" y2="9.27" visibility="T"/>
  <line x1="-11.17" y1="-15.08" x2="13.51" y2="-15.08" visibility="T"/>
  <line x1="-11.17" y1="4.93" x2="-11.17" y2="-15.08" visibility="T"/>
  <line x1="1.00" y1="4.93" x2="-11.17" y2="4.93" visibility="T"/>
  <line x1="1.00" y1="0.00" x2="1.00" y2="4.93" visibility="T"/>
  <line x1="0.00" y1="0.00" x2="1.00" y2="0.00" visibility="T"/>
  <line x1="0.00" y1="0.00" x2="0.00" y2="0.00" visibility="T"/>
  <circle cx="0.00" cy="0.00" r="1.00" visibility="T" class="axis"/>
</svg>
