<?xml version="1.0" standalone="no"?>
<svg viewBox="-40 -40 80 80" version="1.2" id="toplevel"
    xmlns="http://www.w3.org/2000/svg"
    xmlns:xlink="http://www.w3.org/1999/xlink">
  <defs>
    <marker viewBox="0 0 10 10" refX="10" refY="5" markerWidth="10"
           markerHeight="10" markerUnits="strokeWidth"
           orient="auto-start-reverse" id="axis-arrow" visibility="T">
      <path d="M 0 0 L 10 5 L 0 10 z" visibility="T"/>
    </marker>
    <marker viewBox="0 0 10 10" refX="10" refY="5" markerWidth="10"
           markerHeight="10" markerUnits="strokeWidth"
           orient="auto-start-reverse" id="arrow" visibility="T">
      <path d="M 0 0 L 10 5 L 0 10 z" visibility="T"/>
    </marker>
  </defs>
  <style>
    
.end-arrow{
marker-end: url(#arrow);
}
.start-arrow{
marker-start: url(#arrow);
}
.mid-arrow{
marker-mid: url(#arrow);
}
svg{
    transform : scaleY(-1);
    transform-origin : 50% 50%;
    stroke : black;
    fill : none;
    stroke-width: .2%;
    font-size: 1%;
}

text{
    fill : black;
    transform : scaleY(-1);
}

marker{
    fill : black;
    fill : context-stroke;
}

marker.axis{
    fill : gray;
}

line{
    stroke: black;
}

.axis{
    stroke : gray;
}

.grid{
    stroke: light slate;
}
  </style>
  <line x1="0.91" y1="-0.40" x2="0.91" y2="-0.40" visibility="T"/>
  <line x1="0.92" y1="-0.40" x2="0.91" y2="-0.40" visibility="T"/>
  <line x1="0.92" y1="-0.43" x2="0.92" y2="-0.40" visibility="T"/>
  <line x1="0.83" y1="-0.43" x2="0.92" y2="-0.43" visibility="T"/>
  <line x1="0.83" y1="-0.18" x2="0.83" y2="-0.43" visibility="T"/>
  <line x1="1.49" y1="-0.18" x2="0.83" y2="-0.18" visibility="T"/>
  <line x1="1.49" y1="-1.74" x2="1.49" y2="-0.18" visibility="T"/>
  <line x1="-1.98" y1="-1.74" x2="1.49" y2="-1.74" visibility="T"/>
  <line x1="-1.98" y1="5.35" x2="-1.98" y2="-1.74" visibility="T"/>
  <line x1="11.33" y1="5.35" x2="-1.98" y2="5.35" visibility="T"/>
  <line x1="11.33" y1="-17.33" x2="11.33" y2="5.35" visibility="T"/>
  <line x1="-23.48" y1="-17.33" x2="11.33" y2="-17.33" visibility="T"/>
  <line x1="-23.48" y1="30.13" x2="-23.48" y2="-17.33" visibility="T"/>
  <line x1="33.15" y1="30.13" x2="-23.48" y2="30.13" visibility="T"/>
  <line x1="33.15" y1="-27.79" x2="33.15" y2="30.13" visibility="T"/>
  <line x1="-16.21" y1="-27.79" x2="33.15" y2="-27.79" visibility="T"/>
  <line x1="-16.21" y1="5.87" x2="-16.21" y2="-27.79" visibility="T"/>
  <line x1="1.00" y1="5.87" x2="-16.21" y2="5.87" visibility="T"/>
  <line x1="1.00" y1="0.00" x2="1.00" y2="5.87" visibility="T"/>
  <line x1="0.00" y1="0.00" x2="1.00" y2="0.00" visibility="T"/>
  <line x1="0.00" y1="0.00" x2="0.00" y2="0.00" visibility="T"/>
  <circle cx="0.00" cy="0.00" r="1.00" visibility="T" class="axis"/>
</svg>
