<?xml version="1.0" standalone="no"?>
<svg viewBox="-40 -40 80 80" version="1.2" id="toplevel"
    xmlns="http://www.w3.org/2000/svg"
    xmlns:xlink="http://www.w3.org/1999/xlink">
  <defs>
    <marker viewBox="0 0 10 10" refX="10" refY="5" markerWidth="10"
           markerHeight="10" markerUnits="strokeWidth"
           orient="auto-start-reverse" id="axis-arrow" visibility="T">
      <path d="M 0 0 L 10 5 L 0 10 z" visibility="T"/>
    </marker>
    <marker viewBox="0 0 10 10" refX="10" refY="5" markerWidth="10"
           markerHeight="10" markerUnits="strokeWidth"
           orient="auto-start-reverse" id="arrow" visibility="T">
      <path d="M 0 0 L 10 5 L 0 10 z" visibility="T"/>
    </marker>
  </defs>
  <style>
    
.end-arrow{
marker-end: url(#arrow);
}
.start-arrow{
marker-start: url(#arrow);
}
.mid-arrow{
marker-mid: url(#arrow);
}
svg{
    transform : scaleY(-1);
    transform-origin : 50% 50%;
    stroke : black;
    fill : none;
    stroke-width: .2%;
    font-size: 1%;
}

text{
    fill : black;
    transform : scaleY(-1);
}

marker{
    fill : black;
    fill : context-stroke;
}

marker.axis{
    fill : gray;
}

line{
    stroke: black;
}

.axis{
    stroke : gray;
}

.grid{
    stroke: light slate;
}
  </style>
  <line x1="0.95" y1="-0.31" x2="0.95" y2="-0.31" visibility="T"/>
  <line x1="0.96" y1="-0.31" x2="0.95" y2="-0.31" visibility="T"/>
  <line x1="0.96" y1="-0.35" x2="0.96" y2="-0.31" visibility="T"/>
  <line x1="0.84" y1="-0.35" x2="0.96" y2="-0.35" visibility="T"/>
  <line x1="0.84" y1="-0.02" x2="0.84" y2="-0.35" visibility="T"/>
  <line x1="1.67" y1="-0.02" x2="0.84" y2="-0.02" visibility="T"/>
  <line x1="1.67" y1="-1.97" x2="1.67" y2="-0.02" visibility="T"/>
  <line x1="-2.58" y1="-1.97" x2="1.67" y2="-1.97" visibility="T"/>
  <line x1="-2.58" y1="6.58" x2="-2.58" y2="-1.97" visibility="T"/>
  <line x1="13.18" y1="6.58" x2="-2.58" y2="6.58" visibility="T"/>
  <line x1="13.18" y1="-19.84" x2="13.18" y2="6.58" visibility="T"/>
  <line x1="-26.66" y1="-19.84" x2="13.18" y2="-19.84" visibility="T"/>
  <line x1="-26.66" y1="33.58" x2="-26.66" y2="-19.84" visibility="T"/>
  <line x1="36.01" y1="33.58" x2="-26.66" y2="33.58" visibility="T"/>
  <line x1="36.01" y1="-29.44" x2="36.01" y2="33.58" visibility="T"/>
  <line x1="-16.80" y1="-29.44" x2="36.01" y2="-29.44" visibility="T"/>
  <line x1="-16.80" y1="5.97" x2="-16.80" y2="-29.44" visibility="T"/>
  <line x1="1.00" y1="5.97" x2="-16.80" y2="5.97" visibility="T"/>
  <line x1="1.00" y1="0.00" x2="1.00" y2="5.97" visibility="T"/>
  <line x1="0.00" y1="0.00" x2="1.00" y2="0.00" visibility="T"/>
  <line x1="0.00" y1="0.00" x2="0.00" y2="0.00" visibility="T"/>
  <circle cx="0.00" cy="0.00" r="1.00" visibility="T" class="axis"/>
</svg>
